[
    {
        "id": "3013345c-0f44-4469-82f2-ad4217fc1cc1",
        "state": "complete",
        "control": false,
        "protocol_id": "eb041d4e-627d-4b7b-b38c-2b1434a0dfd8",
        "device_id": "M40",
        "specimen_id": [
            "GY00000005",
            "GY00000005"
        ],
        "consumable": {
            "experiment_name": "Lupus Validation Run4(New) -  0",
            "carrier_serial_number": "A36R4ZN",
            "spotting_lot_number": "170352",
            "lot_number": "VALDATA"
        },
        "created_at": "2017-10-11T16:01:10.220-07:00",
        "updated_at": "2017-10-11T16:01:54.888-07:00"
    },
    {
        "id": "9284ab74-e00b-498d-9322-5ebdf32b355f",
        "state": "scanning",
        "control": false,
        "protocol_id": "eb041d4e-627d-4b7b-b38c-2b1434a0dfd8",
        "device_id": "M40",
        "specimen_id": [
            "GY00000005",
            "GY00000005"
        ],
        "consumable": {
            "experiment_name": "Lupus Validation Run4(Dev) -  0",
            "carrier_serial_number": "A36R4ZN",
            "spotting_lot_number": "170352",
            "lot_number": "VALDATA"
        },
        "created_at": "2017-10-11T16:03:00.808-07:00",
        "updated_at": "2017-10-11T16:03:01.343-07:00"
    },
    {
        "id": "edadf23f-681f-46cc-ad9d-82df7c1a3e8a",
        "state": "complete",
        "control": false,
        "protocol_id": "eb041d4e-627d-4b7b-b38c-2b1434a0dfd8",
        "device_id": "M40",
        "specimen_id": [
            "SPECIMENd130a690",
            "SPECIMENd130a690"
        ],
        "consumable": {
            "experiment_name": "1 Probe Experiment - 2017-10-11T11:50:20-07:00",
            "carrier_serial_number": "TESTINGTESTING04f38573",
            "spotting_lot_number": "TESTINGTESTINGf9f90c0d",
            "lot_number": "LOT1"
        },
        "created_at": "2017-10-11T11:50:29.768-07:00",
        "updated_at": "2017-10-11T11:51:02.841-07:00"
    },
    {
        "id": "ddd4bce3-bb2c-4df8-8013-e0d95f09b474",
        "state": "complete",
        "control": false,
        "protocol_id": "80af6e8b-722e-4270-a67e-27e3115469a4",
        "device_id": "M40",
        "specimen_id": [
            "TESTONLY_ANAKIT;85112;AA2013;A10V7XO;10JUL2018",
            "TESTONLY_ANAKIT;85112;AA2013;A10V7XO;10JUL2018"
        ],
        "consumable": {
            "experiment_name": "Kerberos Bay1 Salts Run against 1.3.16",
            "carrier_serial_number": "A10V7XO",
            "spotting_lot_number": "AA2013",
            "lot_number": ""
        },
        "created_at": "2017-11-15T10:43:25.891-08:00",
        "updated_at": "2017-11-15T10:43:53.367-08:00"
    },
    {
        "id": "ef7af85b-6b1c-4315-9970-26cc357802e4",
        "state": "complete",
        "control": false,
        "protocol_id": "eb041d4e-627d-4b7b-b38c-2b1434a0dfd8",
        "device_id": "M40",
        "specimen_id": [
            "SPECIMEN6c2c93de",
            "SPECIMEN6c2c93de"
        ],
        "consumable": {
            "experiment_name": "1 Probe Experiment - 2017-10-11T12:36:33-07:00",
            "carrier_serial_number": "TESTINGTESTINGccacf9f6",
            "spotting_lot_number": "TESTINGTESTING48d171e9",
            "lot_number": "LOT1"
        },
        "created_at": "2017-10-11T12:36:34.276-07:00",
        "updated_at": "2017-10-11T12:37:19.532-07:00"
    },
    {
        "id": "10d63e14-6f6c-4135-a2eb-f075299ae4ae",
        "state": "complete",
        "control": false,
        "protocol_id": "bca05e5f-7ef7-4ff2-84ab-8579859decb2",
        "device_id": "M40",
        "specimen_id": [
            "GY00000007",
            "GY00000007"
        ],
        "consumable": {
            "experiment_name": "Celiac #2-  0",
            "carrier_serial_number": "A36RGTX",
            "spotting_lot_number": "170352",
            "lot_number": "AA0555"
        },
        "created_at": "2017-10-20T16:16:35.492-07:00",
        "updated_at": "2017-10-20T16:17:29.359-07:00"
    },
    {
        "id": "a985874c-2b4f-4405-aa86-c6de9ae855db",
        "state": "complete",
        "control": false,
        "protocol_id": "eb041d4e-627d-4b7b-b38c-2b1434a0dfd8",
        "device_id": "M40",
        "specimen_id": [
            "GY00000005",
            "GY00000005"
        ],
        "consumable": {
            "experiment_name": "Lupus Validation Run5(Dev) -  0",
            "carrier_serial_number": "A36R4ZN",
            "spotting_lot_number": "170352",
            "lot_number": "VALDATA"
        },
        "created_at": "2017-10-11T16:05:53.371-07:00",
        "updated_at": "2017-10-11T16:07:16.595-07:00"
    },
    {
        "id": "2dd78a17-f47c-4c63-80e2-25095bcf11c9",
        "state": "complete",
        "control": false,
        "protocol_id": "eb041d4e-627d-4b7b-b38c-2b1434a0dfd8",
        "device_id": "M40",
        "specimen_id": [
            "GY00000005",
            "GY00000005"
        ],
        "consumable": {
            "experiment_name": "Lupus Validation Run2(Dev) -  0",
            "carrier_serial_number": "A36R4ZN",
            "spotting_lot_number": "170352",
            "lot_number": "VALDATA"
        },
        "created_at": "2017-10-11T15:40:18.518-07:00",
        "updated_at": "2017-10-11T15:41:00.920-07:00"
    },
    {
        "id": "c4db47ac-512c-410c-a913-c9d55632ab29",
        "state": "complete",
        "control": false,
        "protocol_id": "80af6e8b-722e-4270-a67e-27e3115469a4",
        "device_id": "M40",
        "specimen_id": [
            "TESTONLY_ANAKIT;85112;AA2013;A10V7XO;10JUL2018",
            "TESTONLY_ANAKIT;85112;AA2013;A10V7XO;10JUL2018"
        ],
        "consumable": {
            "experiment_name": "Kerberos Bay1 Salts Run against 1.3.7",
            "carrier_serial_number": "A10V7XO",
            "spotting_lot_number": "AA2013",
            "lot_number": ""
        },
        "created_at": "2017-11-15T11:01:08.757-08:00",
        "updated_at": "2017-11-15T11:01:38.356-08:00"
    },
    {
        "id": "691657a3-121a-4e91-b857-bf619a8b0f90",
        "state": "complete",
        "control": false,
        "protocol_id": "eb041d4e-627d-4b7b-b38c-2b1434a0dfd8",
        "device_id": "M40",
        "specimen_id": [
            "GY00000005",
            "GY00000005"
        ],
        "consumable": {
            "experiment_name": "Lupus Validation Run3(Dev) -  0",
            "carrier_serial_number": "A36R4ZN",
            "spotting_lot_number": "170352",
            "lot_number": "VALDATA"
        },
        "created_at": "2017-10-11T15:42:28.442-07:00",
        "updated_at": "2017-10-11T15:43:13.820-07:00"
    },
    {
        "id": "58d3c866-5189-4f84-8b7b-615d7de992b9",
        "state": "scanning",
        "control": false,
        "protocol_id": "eb041d4e-627d-4b7b-b38c-2b1434a0dfd8",
        "device_id": "M40",
        "specimen_id": [
            "GY00000005",
            "GY00000005"
        ],
        "consumable": {
            "experiment_name": "Lupus Validation Run3(Feature) -  0",
            "carrier_serial_number": "A36R4ZN",
            "spotting_lot_number": "170352",
            "lot_number": "VALDATA"
        },
        "created_at": "2017-10-11T15:48:30.436-07:00",
        "updated_at": "2017-10-11T15:48:30.835-07:00"
    },
    {
        "id": "934dce7b-6b67-499a-9a8c-b2e844923e51",
        "state": "complete",
        "control": false,
        "protocol_id": "eb041d4e-627d-4b7b-b38c-2b1434a0dfd8",
        "device_id": "M40",
        "specimen_id": [
            "GY00000007",
            "GY00000007"
        ],
        "consumable": {
            "experiment_name": "Lupus Validation Portal 1.0.55 -  0",
            "carrier_serial_number": "A36RGTX",
            "spotting_lot_number": "170352",
            "lot_number": "VALDATA"
        },
        "created_at": "2017-10-12T10:30:32.854-07:00",
        "updated_at": "2017-10-12T10:31:03.717-07:00"
    },
    {
        "id": "b7d9b474-1b79-4bd1-8b36-faf30f0ae0a0",
        "state": "complete",
        "control": false,
        "protocol_id": "eb041d4e-627d-4b7b-b38c-2b1434a0dfd8",
        "device_id": "M40",
        "specimen_id": [
            "GY00000005",
            "GY00000005"
        ],
        "consumable": {
            "experiment_name": "Lupus Validation Run3(New) -  0",
            "carrier_serial_number": "A36R4ZN",
            "spotting_lot_number": "170352",
            "lot_number": "VALDATA"
        },
        "created_at": "2017-10-11T15:51:26.978-07:00",
        "updated_at": "2017-10-11T15:52:15.074-07:00"
    },
    {
        "id": "145aee1a-904f-48af-9926-0d3581cfc5c7",
        "state": "complete",
        "control": false,
        "protocol_id": "bca05e5f-7ef7-4ff2-84ab-8579859decb2",
        "device_id": "M40",
        "specimen_id": [
            "GY00000007",
            "GY00000007"
        ],
        "consumable": {
            "experiment_name": "Celiac #3-  0",
            "carrier_serial_number": "A36RGTX",
            "spotting_lot_number": "170352",
            "lot_number": "AA0555"
        },
        "created_at": "2017-10-23T09:15:44.159-07:00",
        "updated_at": "2017-10-23T09:16:39.454-07:00"
    },
    {
        "id": "9bc5135c-a7d1-4672-b4a9-8196ae72a88a",
        "state": "complete",
        "control": false,
        "protocol_id": "80af6e8b-722e-4270-a67e-27e3115469a4",
        "device_id": "M40",
        "specimen_id": [
            "TESTONLY_ANAKIT;85112;AA2013;A10V7XO;10JUL2018",
            "TESTONLY_ANAKIT;85112;AA2013;A10V7XO;10JUL2018"
        ],
        "consumable": {
            "experiment_name": "Kerberos Bay1 Salts Run against 1.3.17",
            "carrier_serial_number": "A10V7XO",
            "spotting_lot_number": "AA2013",
            "lot_number": ""
        },
        "created_at": "2017-11-15T10:48:51.994-08:00",
        "updated_at": "2017-11-15T10:49:19.972-08:00"
    },
    {
        "id": "4f8873d3-e10c-40bb-9f9c-c82b865f8a6f",
        "state": "complete",
        "control": false,
        "protocol_id": "bca05e5f-7ef7-4ff2-84ab-8579859decb2",
        "device_id": "M40",
        "specimen_id": [
            "GY00000007",
            "GY00000007"
        ],
        "consumable": {
            "experiment_name": "Celiac -  0",
            "carrier_serial_number": "A36RGTX",
            "spotting_lot_number": "170352",
            "lot_number": "AA0555"
        },
        "created_at": "2017-10-20T12:08:02.502-07:00",
        "updated_at": "2017-10-20T12:20:51.391-07:00"
    },
    {
        "id": "93074fc4-de48-4570-b8ca-3fa2a4706679",
        "state": "scanning",
        "control": false,
        "protocol_id": "bca05e5f-7ef7-4ff2-84ab-8579859decb2",
        "device_id": "M40",
        "specimen_id": [
            "GY00000007",
            "GY00000007"
        ],
        "consumable": {
            "experiment_name": "Celiac #2-  0",
            "carrier_serial_number": "A36RGTX",
            "spotting_lot_number": "170352",
            "lot_number": "AA0555"
        },
        "created_at": "2017-10-20T16:06:21.710-07:00",
        "updated_at": "2017-10-20T16:06:22.044-07:00"
    },
    {
        "id": "588e97c0-aebe-4d6c-8989-9100881c0fcf",
        "state": "scanning",
        "control": false,
        "protocol_id": "bca05e5f-7ef7-4ff2-84ab-8579859decb2",
        "device_id": "M40",
        "specimen_id": [
            "GY00000007",
            "GY00000007"
        ],
        "consumable": {
            "experiment_name": "Celiac #2-  0",
            "carrier_serial_number": "A36RGTX",
            "spotting_lot_number": "170352",
            "lot_number": "AA0555"
        },
        "created_at": "2017-10-20T16:08:13.685-07:00",
        "updated_at": "2017-10-20T16:08:13.867-07:00"
    },
    {
        "id": "cc0f268c-243e-4a71-b656-b076fe8348b7",
        "state": "complete",
        "control": false,
        "protocol_id": "bca05e5f-7ef7-4ff2-84ab-8579859decb2",
        "device_id": "M40",
        "specimen_id": [
            "GY00000007",
            "GY00000007"
        ],
        "consumable": {
            "experiment_name": "Celiac #4-  0",
            "carrier_serial_number": "A36RGTX",
            "spotting_lot_number": "170352",
            "lot_number": "AA0555"
        },
        "created_at": "2017-10-23T09:30:37.473-07:00",
        "updated_at": "2017-10-23T09:31:16.855-07:00"
    },
    {
        "id": "190f897b-7145-47c9-8352-a43b425ac2a4",
        "state": "complete",
        "control": false,
        "protocol_id": "80af6e8b-722e-4270-a67e-27e3115469a4",
        "device_id": "M40",
        "specimen_id": [
            "TESTONLY_ANAKIT;85112;AA2013;A10V7XO;10JUL2018",
            "TESTONLY_ANAKIT;85112;AA2013;A10V7XO;10JUL2018"
        ],
        "consumable": {
            "experiment_name": "Kerberos Bay1 Salts Run against 1.3.18",
            "carrier_serial_number": "A10V7XO",
            "spotting_lot_number": "AA2013",
            "lot_number": ""
        },
        "created_at": "2017-11-15T10:50:36.474-08:00",
        "updated_at": "2017-11-15T10:51:04.638-08:00"
    },
    {
        "id": "197000bb-f800-4a29-8748-f3b1d9e630b2",
        "state": "complete",
        "control": false,
        "protocol_id": "80af6e8b-722e-4270-a67e-27e3115469a4",
        "device_id": "M40",
        "specimen_id": [
            "TESTONLY_ANAKIT;85112;AA2013;A10V7XO;10JUL2018",
            "TESTONLY_ANAKIT;85112;AA2013;A10V7XO;10JUL2018"
        ],
        "consumable": {
            "experiment_name": "Kerberos Bay1 Salts",
            "carrier_serial_number": "A10V7XO",
            "spotting_lot_number": "AA2013",
            "lot_number": ""
        },
        "created_at": "2017-11-15T10:39:16.564-08:00",
        "updated_at": "2017-11-15T10:39:44.705-08:00"
    },
    {
        "id": "8cb49c53-2bf3-497c-be0c-f58a0170eb96",
        "state": "complete",
        "control": false,
        "protocol_id": "80af6e8b-722e-4270-a67e-27e3115469a4",
        "device_id": "M40",
        "specimen_id": [
            "TESTONLY_ANAKIT;85112;AA2013;A10V7XO;10JUL2018",
            "TESTONLY_ANAKIT;85112;AA2013;A10V7XO;10JUL2018"
        ],
        "consumable": {
            "experiment_name": "Kerberos Bay1 Salts Run against 1.3.19",
            "carrier_serial_number": "A10V7XO",
            "spotting_lot_number": "AA2013",
            "lot_number": ""
        },
        "created_at": "2017-11-15T10:51:56.682-08:00",
        "updated_at": "2017-11-15T10:52:22.876-08:00"
    }
]